%YAML 1.1
%TAG !u! tag:unity3d.com,2011:
--- !u!1045 &1
EditorBuildSettings:
  m_ObjectHideFlags: 0
  serializedVersion: 2
  m_Scenes:
  - enabled: 1
    path: Assets/Scenes/SplashScreen.unity
    guid: fc37177ecdfe42a45b10f76ea94654f9
  - enabled: 1
    path: Assets/Scenes/MainScene.unity
    guid: c9c4605cd43015649bb9eddf3d41ef34
  m_configObjects: {}
